<?xml version="1.0" encoding="utf-8"?>
<!-- Generator: Adobe Illustrator 16.0.0, SVG Export Plug-In . SVG Version: 6.00 Build 0)  -->
<!DOCTYPE svg PUBLIC "-//W3C//DTD SVG 1.1//EN" "http://www.w3.org/Graphics/SVG/1.1/DTD/svg11.dtd">
<svg version="1.1" id="Layer_1" xmlns="http://www.w3.org/2000/svg" xmlns:xlink="http://www.w3.org/1999/xlink" x="0px" y="0px"
	 width="100px" height="100.002px" viewBox="0 0 100 100.002" enable-background="new 0 0 100 100.002" xml:space="preserve">
<path id="f" fill="#FFFFFF" d="M38.43,81.292V52.745h9.582l1.434-11.126H38.43v-7.103c0-3.22,0.894-5.416,5.513-5.416l5.891-0.002
	v-9.95c-1.019-0.137-4.516-0.439-8.583-0.439c-8.494,0-14.308,5.185-14.308,14.706v8.203h-9.608v11.126h9.606v28.547H38.43z"/>
</svg>
