<?xml version="1.0" encoding="utf-8"?>
<!-- Generator: Adobe Illustrator 16.0.0, SVG Export Plug-In . SVG Version: 6.00 Build 0)  -->
<!DOCTYPE svg PUBLIC "-//W3C//DTD SVG 1.1//EN" "http://www.w3.org/Graphics/SVG/1.1/DTD/svg11.dtd">
<svg version="1.1" id="Layer_1" xmlns="http://www.w3.org/2000/svg" xmlns:xlink="http://www.w3.org/1999/xlink" x="0px" y="0px"
	 width="100px" height="100px" viewBox="0 0 100 100" enable-background="new 0 0 100 100" xml:space="preserve">
<g>
	<path fill="#FFFFFF" d="M50,47.081H38.323v7.007h11.591c-0.468,3.005-3.506,8.814-11.591,8.814
		c-6.979,0-12.668-5.781-12.668-12.902c0-7.124,5.69-12.902,12.668-12.902c3.968,0,6.625,1.693,8.145,3.153L50,36.847l2.013-1.938
		c-0.633-0.593-1.312-1.129-2.013-1.631c-3.23-2.332-7.144-3.711-11.677-3.711c-11.297,0-20.434,9.137-20.434,20.434
		c0,11.295,9.137,20.434,20.434,20.434c4.564,0,8.524-1.254,11.677-3.452c4.991-3.483,7.942-9.355,7.942-16.514
		c0-1.342-0.148-2.363-0.325-3.386H50z"/>
	<polygon fill="#FFFFFF" points="76.272,47.081 76.272,41.243 72.538,41.243 70.434,41.243 70.434,47.081 64.596,47.081 
		64.596,52.92 70.434,52.92 70.434,58.758 72.538,58.758 76.272,58.758 76.272,52.92 82.11,52.92 82.11,47.081 	"/>
</g>
</svg>
