<?xml version="1.0" encoding="utf-8"?>
<!-- Generator: Adobe Illustrator 16.0.0, SVG Export Plug-In . SVG Version: 6.00 Build 0)  -->
<!DOCTYPE svg PUBLIC "-//W3C//DTD SVG 1.1//EN" "http://www.w3.org/Graphics/SVG/1.1/DTD/svg11.dtd">
<svg version="1.1" id="Layer_1" xmlns="http://www.w3.org/2000/svg" xmlns:xlink="http://www.w3.org/1999/xlink" x="0px" y="0px"
	 width="100px" height="100px" viewBox="0 0 100 100" enable-background="new 0 0 100 100" xml:space="preserve">
<g>
	<path fill="#FFFFFF" d="M44.241,72.85c-0.08-0.217-0.11-0.402-0.083-0.551c0.029-0.148-0.065-0.271-0.283-0.366
		c-0.22-0.095-0.327-0.17-0.327-0.224s-0.156-0.095-0.468-0.122c-0.312-0.027-0.468-0.039-0.468-0.039H29.917
		c-1.791,0-3.322-0.639-4.597-1.914c-1.276-1.276-1.912-2.807-1.912-4.598V36.391c0-1.79,0.636-3.322,1.912-4.597
		c1.275-1.275,2.807-1.914,4.597-1.914h13.022c0.351,0,0.629-0.085,0.833-0.263c0.203-0.176,0.339-0.441,0.405-0.793
		c0.069-0.354,0.11-0.673,0.125-0.956c0.012-0.285,0.007-0.643-0.022-1.077c-0.027-0.435-0.039-0.708-0.039-0.815
		c0-0.354-0.129-0.659-0.388-0.917c-0.258-0.256-0.563-0.385-0.914-0.385H29.917c-3.227,0-5.987,1.146-8.279,3.438
		c-2.292,2.292-3.438,5.053-3.438,8.279v28.645c0,3.229,1.146,5.987,3.438,8.279c2.292,2.295,5.053,3.441,8.279,3.441h13.022
		c0.353,0,0.629-0.091,0.833-0.267c0.203-0.175,0.339-0.441,0.408-0.792c0.068-0.354,0.107-0.673,0.122-0.956
		c0.012-0.285,0.007-0.644-0.022-1.077C44.252,73.23,44.241,72.957,44.241,72.85L44.241,72.85z M44.241,72.85"/>
	<path fill="#FFFFFF" d="M81.227,48.883L59.092,26.749c-0.515-0.515-1.124-0.773-1.831-0.773c-0.705,0-1.314,0.258-1.832,0.773
		c-0.515,0.515-0.772,1.127-0.772,1.832v11.717H36.428c-0.705,0-1.314,0.258-1.831,0.773c-0.515,0.517-0.773,1.127-0.773,1.832
		v15.626c0,0.704,0.258,1.314,0.773,1.829c0.517,0.517,1.126,0.775,1.831,0.775h18.229V72.85c0,0.705,0.258,1.317,0.772,1.832
		c0.518,0.515,1.127,0.772,1.832,0.772c0.707,0,1.316-0.258,1.831-0.772l22.135-22.135C81.744,52.031,82,51.42,82,50.715
		C82,50.011,81.744,49.398,81.227,48.883L81.227,48.883z M81.227,48.883"/>
</g>
</svg>
